{
  "page": 1,
  "total_results": 19743,
  "total_pages": 988,
  "results": [
    {
      "vote_count": 560,
      "id": 287947,
      "video": false,
      "vote_average": 7.4,
      "title": "Shazam!",
      "popularity": 447.577,
      "poster_path": "assets/shazam.jpg",
      "original_language": "en",
      "original_title": "Shazam!",
      "genre_ids": [
        28,
        35,
        12,
        14
      ],
      "backdrop_path": "https://cdn3.movieweb.com/i/article/wJthKP6eG49dkms8HyPIwiXUXLpyeW/798:50/How-To-Train-Your-Dragon-The-Hidden-World.jpg",
      "adult": false,
      "overview": "A boy is given the ability to become an adult superhero in times of need with a single magic word.",
      "release_date": "2019-03-23"
    },
    {
      "vote_count": 3557,
      "id": 299537,
      "video": false,
      "vote_average": 7.2,
      "title": "Captain Marvel",
      "popularity": 352.487,
      "poster_path": "/AtsgWhDnHTq68L0lLsUrCnM7TjG.jpg",
      "original_language": "en",
      "original_title": "Captain Marvel",
      "genre_ids": [
        28,
        12,
        878
      ],
      "backdrop_path": "https://cdn3.movieweb.com/i/article/wJthKP6eG49dkms8HyPIwiXUXLpyeW/798:50/How-To-Train-Your-Dragon-The-Hidden-World.jpg",
      "adult": false,
      "overview": "The story follows Carol Danvers as she becomes one of the universe’s most powerful heroes when Earth is caught in the middle of a galactic war between two alien races. Set in the 1990s, Captain Marvel is an all-new adventure from a previously unseen period in the history of the Marvel Cinematic Universe.",
      "release_date": "2019-03-06"
    },
    {
      "vote_count": 1352,
      "id": 166428,
      "video": false,
      "vote_average": 7.6,
      "title": "How to Train Your Dragon: The Hidden World",
      "popularity": 343.005,
      "poster_path": "/xvx4Yhf0DVH8G4LzNISpMfFBDy2.jpg",
      "original_language": "en",
      "original_title": "How to Train Your Dragon: The Hidden World",
      "genre_ids": [
        16,
        10751,
        12
      ],
      "backdrop_path": "https://cdn3.movieweb.com/i/article/wJthKP6eG49dkms8HyPIwiXUXLpyeW/798:50/How-To-Train-Your-Dragon-The-Hidden-World.jpg",
      "adult": false,
      "overview": "As Hiccup fulfills his dream of creating a peaceful dragon utopia, Toothless’ discovery of an untamed, elusive mate draws the Night Fury away. When danger mounts at home and Hiccup’s reign as village chief is tested, both dragon and rider must make impossible decisions to save their kind.",
      "release_date": "2019-01-03"
    },
    {
      "vote_count": 2015,
      "id": 450465,
      "video": false,
      "vote_average": 6.5,
      "title": "Glass",
      "popularity": 283.535,
      "poster_path": "/svIDTNUoajS8dLEo7EosxvyAsgJ.jpg",
      "original_language": "en",
      "original_title": "Glass",
      "genre_ids": [
        53,
        9648,
        18,
        14,
        878
      ],
      "backdrop_path": "https://cdn3.movieweb.com/i/article/wJthKP6eG49dkms8HyPIwiXUXLpyeW/798:50/How-To-Train-Your-Dragon-The-Hidden-World.jpg",
      "adult": false,
      "overview": "In a series of escalating encounters, security guard David Dunn uses his supernatural abilities to track Kevin Wendell Crumb, a disturbed man who has twenty-four personalities. Meanwhile, the shadowy presence of Elijah Price emerges as an orchestrator who holds secrets critical to both men.",
      "release_date": "2019-01-16"
    },
    {
      "vote_count": 649,
      "id": 522681,
      "video": false,
      "vote_average": 6.3,
      "title": "Escape Room",
      "popularity": 220.412,
      "poster_path": "/8yZAx7tlKRZIg7pJfaPhl00yHIQ.jpg",
      "original_language": "en",
      "original_title": "Escape Room",
      "genre_ids": [
        27,
        53,
        28,
        878,
        12,
        18,
        9648
      ],
      "backdrop_path": "https://cdn3.movieweb.com/i/article/wJthKP6eG49dkms8HyPIwiXUXLpyeW/798:50/How-To-Train-Your-Dragon-The-Hidden-World.jpg",
      "adult": false,
      "overview": "Six strangers find themselves in circumstances beyond their control, and must use their wits to survive.",
      "release_date": "2019-01-03"
    },
    {
      "vote_count": 646,
      "id": 329996,
      "video": false,
      "vote_average": 6.8,
      "title": "Dumbo",
      "popularity": 214.111,
      "poster_path": "/279PwJAcelI4VuBtdzrZASqDPQr.jpg",
      "original_language": "en",
      "original_title": "Dumbo",
      "genre_ids": [
        12,
        10751,
        14
      ],
      "backdrop_path": "https://cdn3.movieweb.com/i/article/wJthKP6eG49dkms8HyPIwiXUXLpyeW/798:50/How-To-Train-Your-Dragon-The-Hidden-World.jpg",
      "adult": false,
      "overview": "A young elephant, whose oversized ears enable him to fly, helps save a struggling circus, but when the circus plans a new venture, Dumbo and his friends discover dark secrets beneath its shiny veneer.",
      "release_date": "2019-03-27"
    },
    {
      "vote_count": 836,
      "id": 458723,
      "video": false,
      "vote_average": 7.3,
      "title": "Us",
      "popularity": 176.529,
      "poster_path": "/ux2dU1jQ2ACIMShzB3yP93Udpzc.jpg",
      "original_language": "en",
      "original_title": "Us",
      "genre_ids": [
        53,
        27
      ],
      "backdrop_path": "https://cdn3.movieweb.com/i/article/wJthKP6eG49dkms8HyPIwiXUXLpyeW/798:50/How-To-Train-Your-Dragon-The-Hidden-World.jpg",
      "adult": false,
      "overview": "Husband and wife Gabe and Adelaide Wilson take their kids to their beach house expecting to unplug and unwind with friends. But as night descends, their serenity turns to tension and chaos when some shocking visitors arrive uninvited.",
      "release_date": "2019-03-14"
    },
    {
      "vote_count": 12,
      "id": 485811,
      "video": false,
      "vote_average": 5.4,
      "title": "Redcon-1",
      "popularity": 163.712,
      "poster_path": "/vVPrWngVJ2cfYAncBedQty69Dlf.jpg",
      "original_language": "en",
      "original_title": "Redcon-1",
      "genre_ids": [
        28,
        27
      ],
      "backdrop_path": "https://cdn3.movieweb.com/i/article/wJthKP6eG49dkms8HyPIwiXUXLpyeW/798:50/How-To-Train-Your-Dragon-The-Hidden-World.jpg",
      "adult": false,
      "overview": "After a zombie apocalypse spreads from a London prison, the UK is brought to its knees. The spread of the virus is temporarily contained but, without a cure, it’s only a matter of time before it breaks its boundaries and the biggest problem of all… any zombies with combat skills are now enhanced. With the South East of England quarantined from the rest of the world using fortified borders, intelligence finds that the scientist responsible for the outbreak is alive and well in London. With his recovery being the only hope of a cure, a squad of eight Special Forces soldiers is sent on a suicide mission to the city, now ruled by the undead, with a single task: get him out alive within 72 hours by any means necessary. What emerges is an unlikely pairing on a course to save humanity against ever-rising odds.",
      "release_date": "2018-09-28"
    },
    {
      "vote_count": 1805,
      "id": 424783,
      "video": false,
      "vote_average": 6.4,
      "title": "Bumblebee",
      "popularity": 156.436,
      "poster_path": "/fw02ONlDhrYjTSZV8XO6hhU3ds3.jpg",
      "original_language": "en",
      "original_title": "Bumblebee",
      "genre_ids": [
        28,
        12,
        878
      ],
      "backdrop_path": "https://cdn3.movieweb.com/i/article/wJthKP6eG49dkms8HyPIwiXUXLpyeW/798:50/How-To-Train-Your-Dragon-The-Hidden-World.jpg",
      "adult": false,
      "overview": "On the run in the year 1987, Bumblebee finds refuge in a junkyard in a small Californian beach town. Charlie, on the cusp of turning 18 and trying to find her place in the world, discovers Bumblebee, battle-scarred and broken.  When Charlie revives him, she quickly learns this is no ordinary yellow VW bug.",
      "release_date": "2018-12-15"
    },
    {
      "vote_count": 12514,
      "id": 299536,
      "video": false,
      "vote_average": 8.3,
      "title": "Avengers: Infinity War",
      "popularity": 144.722,
      "poster_path": "/7WsyChQLEftFiDOVTGkv3hFpyyt.jpg",
      "original_language": "en",
      "original_title": "Avengers: Infinity War",
      "genre_ids": [
        12,
        28,
        14
      ],
      "backdrop_path": "https://cdn3.movieweb.com/i/article/wJthKP6eG49dkms8HyPIwiXUXLpyeW/798:50/How-To-Train-Your-Dragon-The-Hidden-World.jpg",
      "adult": false,
      "overview": "As the Avengers and their allies have continued to protect the world from threats too large for any one hero to handle, a new danger has emerged from the cosmic shadows: Thanos. A despot of intergalactic infamy, his goal is to collect all six Infinity Stones, artifacts of unimaginable power, and use them to inflict his twisted will on all of reality. Everything the Avengers have fought for has led up to this moment - the fate of Earth and existence itself has never been more uncertain.",
      "release_date": "2018-04-25"
    },
    {
      "vote_count": 256,
      "id": 500682,
      "video": false,
      "vote_average": 6.9,
      "title": "The Highwaymen",
      "popularity": 124.153,
      "poster_path": "/4bRYg4l12yDuJvAfqvUOPnBrxno.jpg",
      "original_language": "en",
      "original_title": "The Highwaymen",
      "genre_ids": [
        80,
        18,
        53
      ],
      "backdrop_path": "https://cdn3.movieweb.com/i/article/wJthKP6eG49dkms8HyPIwiXUXLpyeW/798:50/How-To-Train-Your-Dragon-The-Hidden-World.jpg",
      "adult": false,
      "overview": "In 1934, Frank Hamer and Manny Gault, two former Texas Rangers, are commissioned to put an end to the wave of vicious crimes perpetrated by Bonnie Parker and Clyde Barrow, a notorious duo of infamous robbers and cold-blooded killers who nevertheless are worshiped by the public.",
      "release_date": "2019-03-15"
    },
    {
      "vote_count": 5199,
      "id": 297802,
      "video": false,
      "vote_average": 6.8,
      "title": "Aquaman",
      "popularity": 123.739,
      "poster_path": "/5Kg76ldv7VxeX9YlcQXiowHgdX6.jpg",
      "original_language": "en",
      "original_title": "Aquaman",
      "genre_ids": [
        28,
        12,
        14,
        878
      ],
      "backdrop_path": "https://cdn3.movieweb.com/i/article/wJthKP6eG49dkms8HyPIwiXUXLpyeW/798:50/How-To-Train-Your-Dragon-The-Hidden-World.jpg",
      "adult": false,
      "overview": "Once home to the most advanced civilization on Earth, Atlantis is now an underwater kingdom ruled by the power-hungry King Orm. With a vast army at his disposal, Orm plans to conquer the remaining oceanic people and then the surface world. Standing in his way is Arthur Curry, Orm's half-human, half-Atlantean brother and true heir to the throne.",
      "release_date": "2018-12-07"
    },
    {
      "vote_count": 7191,
      "id": 920,
      "video": false,
      "vote_average": 6.7,
      "title": "Cars",
      "popularity": 116.142,
      "poster_path": "/5damnMcRFKSjhCirgX3CMa88MBj.jpg",
      "original_language": "en",
      "original_title": "Cars",
      "genre_ids": [
        16,
        12,
        35,
        10751
      ],
      "backdrop_path": "https://cdn3.movieweb.com/i/article/wJthKP6eG49dkms8HyPIwiXUXLpyeW/798:50/How-To-Train-Your-Dragon-The-Hidden-World.jpg",
      "adult": false,
      "overview": "Lightning McQueen, a hotshot rookie race car driven to succeed, discovers that life is about the journey, not the finish line, when he finds himself unexpectedly detoured in the sleepy Route 66 town of Radiator Springs. On route across the country to the big Piston Cup Championship in California to compete against two seasoned pros, McQueen gets to know the town's offbeat characters.",
      "release_date": "2006-06-08"
    },
    {
      "vote_count": 83,
      "id": 454294,
      "video": false,
      "vote_average": 6,
      "title": "The Kid Who Would Be King",
      "popularity": 114.349,
      "poster_path": "/kBuvLX6zynQP0sjyqbXV4jNaZ4E.jpg",
      "original_language": "en",
      "original_title": "The Kid Who Would Be King",
      "genre_ids": [
        28,
        12,
        14,
        10751
      ],
      "backdrop_path": "https://cdn3.movieweb.com/i/article/wJthKP6eG49dkms8HyPIwiXUXLpyeW/798:50/How-To-Train-Your-Dragon-The-Hidden-World.jpg",
      "adult": false,
      "overview": "Old-school magic meets the modern world when young Alex stumbles upon the mythical sword Excalibur. He soon unites his friends and enemies, and they become knights who join forces with the legendary wizard Merlin. Together, they must save mankind from the wicked enchantress Morgana and her army of supernatural warriors.",
      "release_date": "2019-01-16"
    },
    {
      "vote_count": 0,
      "id": 299534,
      "video": false,
      "vote_average": 0,
      "title": "Avengers: Endgame",
      "popularity": 112.758,
      "poster_path": "/dHjLaIUHXcMBt7YxK1TKWK1end9.jpg",
      "original_language": "en",
      "original_title": "Avengers: Endgame",
      "genre_ids": [
        12,
        878,
        28
      ],
      "backdrop_path": "https://cdn3.movieweb.com/i/article/wJthKP6eG49dkms8HyPIwiXUXLpyeW/798:50/How-To-Train-Your-Dragon-The-Hidden-World.jpg",
      "adult": false,
      "overview": "After the devastating events of Avengers: Infinity War, the universe is in ruins due to the efforts of the Mad Titan, Thanos. With the help of remaining allies, the Avengers must assemble once more in order to undo Thanos' actions and restore order to the universe once and for all, no matter what consequences may be in store.",
      "release_date": "2019-04-24"
    },
    {
      "vote_count": 1158,
      "id": 400650,
      "video": false,
      "vote_average": 6.7,
      "title": "Mary Poppins Returns",
      "popularity": 107.895,
      "poster_path": "/uTVGku4LibMGyKgQvjBtv3OYfAX.jpg",
      "original_language": "en",
      "original_title": "Mary Poppins Returns",
      "genre_ids": [
        14,
        10751,
        35
      ],
      "backdrop_path": "https://cdn3.movieweb.com/i/article/wJthKP6eG49dkms8HyPIwiXUXLpyeW/798:50/How-To-Train-Your-Dragon-The-Hidden-World.jpg",
      "adult": false,
      "overview": "In Depression-era London, a now-grown Jane and Michael Banks, along with Michael's three children, are visited by the enigmatic Mary Poppins following a personal loss. Through her unique magical skills, and with the aid of her friend Jack, she helps the family rediscover the joy and wonder missing in their lives.",
      "release_date": "2018-12-13"
    },
    {
      "vote_count": 107,
      "id": 157433,
      "video": false,
      "vote_average": 5.9,
      "title": "Pet Sematary",
      "popularity": 101.647,
      "poster_path": "/7SPhr7Qj39vbnfF9O2qHRYaKHAL.jpg",
      "original_language": "en",
      "original_title": "Pet Sematary",
      "genre_ids": [
        27,
        53
      ],
      "backdrop_path": "https://cdn3.movieweb.com/i/article/wJthKP6eG49dkms8HyPIwiXUXLpyeW/798:50/How-To-Train-Your-Dragon-The-Hidden-World.jpg",
      "adult": false,
      "overview": "Louis Creed, his wife Rachel and their two children Gage and Ellie move to a rural home where they are welcomed and enlightened about the eerie 'Pet Sematary' located nearby. After the tragedy of their cat being killed by a truck, Louis resorts to burying it in the mysterious pet cemetery, which is definitely not as it seems, as it proves to the Creeds that sometimes dead is better.",
      "release_date": "2019-04-04"
    },
    {
      "vote_count": 3138,
      "id": 324857,
      "video": false,
      "vote_average": 8.5,
      "title": "Spider-Man: Into the Spider-Verse",
      "popularity": 100.211,
      "poster_path": "/iiZZdoQBEYBv6id8su7ImL0oCbD.jpg",
      "original_language": "en",
      "original_title": "Spider-Man: Into the Spider-Verse",
      "genre_ids": [
        28,
        12,
        16,
        878,
        35
      ],
      "backdrop_path": "https://cdn3.movieweb.com/i/article/wJthKP6eG49dkms8HyPIwiXUXLpyeW/798:50/How-To-Train-Your-Dragon-The-Hidden-World.jpg",
      "adult": false,
      "overview": "Miles Morales is juggling his life between being a high school student and being a spider-man. When Wilson \"Kingpin\" Fisk uses a super collider, others from across the Spider-Verse are transported to this dimension.",
      "release_date": "2018-12-07"
    },
    {
      "vote_count": 35,
      "id": 390634,
      "video": false,
      "vote_average": 4.9,
      "title": "Fate/stay night: Heaven’s Feel II. lost butterfly",
      "popularity": 97.622,
      "poster_path": "/4tS0iyKQBDFqVpVcH21MSJwXZdq.jpg",
      "original_language": "ja",
      "original_title": "劇場版「Fate/stay night [Heaven's Feel] ⅠⅠ. lost butterfly」",
      "genre_ids": [
        16,
        28,
        14,
        12
      ],
      "backdrop_path": "https://cdn3.movieweb.com/i/article/wJthKP6eG49dkms8HyPIwiXUXLpyeW/798:50/How-To-Train-Your-Dragon-The-Hidden-World.jpg",
      "adult": false,
      "overview": "Theatrical-release adaptation of the visual novel \"Fate/stay night\", following the third and final route. (Part 2 of a trilogy.)",
      "release_date": "2019-01-12"
    },
    {
      "vote_count": 1154,
      "id": 504172,
      "video": false,
      "vote_average": 6.4,
      "title": "The Mule",
      "popularity": 97.022,
      "poster_path": "/oeZh7yEz3PMnZLgBPhrafFHRbVz.jpg",
      "original_language": "en",
      "original_title": "The Mule",
      "genre_ids": [
        80,
        18,
        53
      ],
      "backdrop_path": "https://cdn3.movieweb.com/i/article/wJthKP6eG49dkms8HyPIwiXUXLpyeW/798:50/How-To-Train-Your-Dragon-The-Hidden-World.jpg",
      "adult": false,
      "overview": "Earl Stone, a man in his 80s who is broke, alone, and facing foreclosure of his business when he is offered a job that simply requires him to drive. Easy enough, but, unbeknownst to Earl, he’s just signed on as a drug courier for a Mexican cartel. He does so well that his cargo increases exponentially, and Earl hit the radar of hard-charging DEA agent Colin Bates.",
      "release_date": "2018-12-14"
    }
  ]
}